{
  "intents": [
    {
      "intent": "ServusIntent"
    },
    {
      "intent": "CoursesCalendarIntent"
    },
    {
      "intent": "AllCoursesCalendarIntent"
    },
    {
      "intent": "CourseCalendarIntent"
    },
    {
      "intent": "CoursePointsIntent"
    },
    {
      "intent": "AMAZON.HelpIntent"
    }
  ]
}
